<svg width="60" height="61" viewBox="0 0 60 61" version="1.1" xmlns="http://www.w3.org/2000/svg" xmlns:xlink="http://www.w3.org/1999/xlink">
<title>ico_agro</title>
<desc>Created using Figma</desc>
<g id="Canvas" transform="translate(-83 -6444)">
<g id="ico_agro">
<g id="Ellipse">
<use xlink:href="#path0_fill" transform="translate(83 6444)" fill="#F1F7FF"/>
</g>
<g id="noun_1164503">
<g id="Vector">
<use xlink:href="#path1_fill" transform="translate(85 6444)" fill="#0052A8"/>
</g>
</g>
</g>
</g>
<defs>
<path id="path0_fill" d="M 60 30C 60 46.5685 46.5685 60 30 60C 13.4315 60 0 46.5685 0 30C 0 13.4315 13.4315 0 30 0C 46.5685 0 60 13.4315 60 30Z"/>
<path id="path1_fill" fill-rule="evenodd" d="M 17.8437 0.0505009C 18.2641 0.119022 18.5794 0.347882 18.7895 0.735712C 23.787 9.73527 26.2861 17.9345 26.2861 25.3348C 26.2861 32.7124 23.7989 39.2219 18.8246 44.8633C 20.0156 47.4445 21.592 49.7283 23.5537 51.7154C 24.7216 49.6138 26.2629 47.7405 28.1777 46.0967L 28.8433 45.5485L 28.4229 45.4115C 28.1196 45.2744 27.8975 45.0572 27.7573 44.7605C 27.5941 44.4631 27.5472 44.1671 27.6172 43.8697C 29.6259 35.2594 33.1289 29.9024 38.1264 27.8015C 42.9375 25.7685 48.9977 26.8422 56.3072 31.022C 56.5643 31.1817 56.7626 31.4099 56.9027 31.7072C 57.0197 32.0046 57.0309 32.3006 56.9377 32.598C 54.789 39.9524 50.6091 43.7327 44.3968 43.9383L 44.1866 43.904C 38.7219 43.3558 34.0047 44.7722 30.0343 48.1523C 27.8856 49.9791 26.298 52.1039 25.2702 54.5248C 24.5696 56.2378 24.1142 57.9851 23.904 59.7666C 23.8809 60.1318 23.7288 60.4285 23.4486 60.6574C 23.1915 60.8856 22.8881 61 22.5378 61L 22.3627 60.9657C 21.9892 60.9424 21.674 60.7828 21.4168 60.4861C 21.1835 60.1887 21.0903 59.8461 21.1366 59.4583C 21.3468 57.6082 21.744 55.9178 22.3276 54.3877C 19.5252 51.7387 17.3764 48.6552 15.882 45.1374C 13.5469 39.6105 12.8225 32.9297 13.7101 25.095C 13.7571 24.7297 13.9322 24.4324 14.2356 24.2042C 14.5158 23.976 14.8542 23.8732 15.2515 23.8958C 15.6487 23.9411 15.964 24.1124 16.1973 24.4097C 16.4306 24.7071 16.5245 25.0381 16.4775 25.4033C 15.7769 31.7298 16.1854 37.2348 17.7036 41.9169C 21.6971 36.9148 23.6469 31.2392 23.5537 24.8894C 23.4605 18.5169 21.2998 11.3681 17.073 3.44229C 8.24537 10.3396 3.49313 18.323 2.81564 27.3904C 2.58234 34.8818 6.14354 39.8839 13.4999 42.3958C 13.8734 42.5103 14.1424 42.7384 14.3056 43.0811C 14.4689 43.4237 14.4808 43.7779 14.3407 44.1431C 14.2237 44.509 13.9904 44.7715 13.6401 44.9311C 13.2898 45.0908 12.9275 45.1024 12.5541 44.9654C 3.9135 42.019 -0.267039 36.1029 0.0132046 27.2191C 0.783875 16.8265 6.35372 7.85026 16.7227 0.289639C 17.073 0.0162403 17.4465 -0.0639293 17.8437 0.0505009ZM 32.2763 38.4223C 34.5883 36.3441 37.0173 35.0305 39.5626 34.4823L 39.8779 34.4481C 40.2051 34.4481 40.4853 34.5392 40.7186 34.7215C 40.9758 34.9277 41.1509 35.1902 41.2441 35.5095C 41.3141 35.8973 41.2441 36.2399 41.0339 36.5373C 40.8237 36.8573 40.5323 37.0628 40.1581 37.154C 36.9592 37.8392 33.8064 40.2025 30.6999 44.2459C 34.7165 41.7106 39.2824 40.6938 44.3968 41.1967C 48.9039 41.0371 52.0804 38.262 53.9251 32.8721C 47.9461 29.5824 43.0538 28.7375 39.2473 30.3368C 36.3748 31.5243 34.0509 34.2192 32.2763 38.4223Z"/>
</defs>
</svg>
